module bitbucket.org/Edik123/go_app/src/master

go 1.16

require (
	github.com/alexedwards/scs/v2 v2.4.0 // indirect
	github.com/asaskevich/govalidator v0.0.0-20210307081110-f21760c49a8d // indirect
	github.com/cockroachdb/cockroach-go v2.0.1+incompatible // indirect
	github.com/fatih/color v1.12.0 // indirect
	github.com/go-chi/chi/v5 v5.0.3
	github.com/go-sql-driver/mysql v1.6.0 // indirect
	github.com/gobuffalo/attrs v1.0.0 // indirect
	github.com/gobuffalo/envy v1.9.0 // indirect
	github.com/gobuffalo/fizz v1.13.0 // indirect
	github.com/gobuffalo/flect v0.2.3 // indirect
	github.com/gobuffalo/genny v0.6.0 // indirect
	github.com/gobuffalo/logger v1.0.4 // indirect
	github.com/gobuffalo/nulls v0.4.0 // indirect
	github.com/gobuffalo/packr/v2 v2.8.1 // indirect
	github.com/gobuffalo/pop v4.13.1+incompatible // indirect
	github.com/gobuffalo/pop/v5 v5.3.4 // indirect
	github.com/gobuffalo/validate v2.0.4+incompatible // indirect
	github.com/gofrs/uuid v4.0.0+incompatible // indirect
	github.com/gorilla/pat v1.0.1 // indirect
	github.com/ian-kent/envconf v0.0.0-20141026121121-c19809918c02 // indirect
	github.com/ian-kent/go-log v0.0.0-20160113211217-5731446c36ab // indirect
	github.com/ian-kent/goose v0.0.0-20141221090059-c3541ea826ad // indirect
	github.com/ian-kent/linkio v0.0.0-20170807205755-97566b872887 // indirect
	github.com/jackc/pgx/v4 v4.13.0 // indirect
	github.com/jmoiron/sqlx v1.3.4 // indirect
	github.com/justinas/nosurf v1.1.1 // indirect
	github.com/lib/pq v1.10.2 // indirect
	github.com/mailhog/MailHog v1.0.1 // indirect
	github.com/mailhog/MailHog-Server v1.0.1 // indirect
	github.com/mailhog/MailHog-UI v1.0.1 // indirect
	github.com/mailhog/data v1.0.1 // indirect
	github.com/mailhog/http v1.0.1 // indirect
	github.com/mailhog/mhsendmail v0.2.0 // indirect
	github.com/mailhog/smtp v1.0.1 // indirect
	github.com/mailhog/storage v1.0.1 // indirect
	github.com/ogier/pflag v0.0.1 // indirect
	github.com/spf13/cobra v1.2.1 // indirect
	github.com/t-k/fluent-logger-golang v1.0.0 // indirect
	github.com/tinylib/msgp v1.1.6 // indirect
	github.com/xhit/go-simple-mail/v2 v2.10.0 // indirect
	golang.org/x/crypto v0.0.0-20210817164053-32db794688a5 // indirect
	gopkg.in/mgo.v2 v2.0.0-20190816093944-a6b53ec6cb22 // indirect
)
